lab4/fpumult/sim/transcript
# //  Questa Sim-64
# //  Version 10.7c linux_x86_64 Aug 17 2018
# //
# //  Copyright 1991-2018 Mentor Graphics Corporation
# //  All Rights Reserved.
# //
# //  QuestaSim and its associated documentation contain trade
# //  secrets and commercial or financial information that are the property of
# //  Mentor Graphics Corporation and are privileged, confidential,
# //  and exempt from disclosure under the Freedom of Information Act,
# //  5 U.S.C. Section 552. Furthermore, this information
# //  is prohibited from disclosure under the Trade Secrets Act,
# //  18 U.S.C. Section 1905.
# //
source script.tcl
# QuestaSim-64 vcom 10.7c Compiler 2018.08 Aug 17 2018
# Start time: 21:10:27 on Mar 17,2021
# vcom -reportprogress 300 -93 -work work ../src/ha.vhd 
# -- Loading package STANDARD
# -- Loading package TEXTIO
# -- Loading package std_logic_1164
# -- Compiling entity ha
# -- Compiling architecture behavioral of ha
# End time: 21:10:27 on Mar 17,2021, Elapsed time: 0:00:00
# Errors: 0, Warnings: 0
# QuestaSim-64 vcom 10.7c Compiler 2018.08 Aug 17 2018
# Start time: 21:10:27 on Mar 17,2021
# vcom -reportprogress 300 -93 -work work ../src/fa.vhd 
# -- Loading package STANDARD
# -- Loading package TEXTIO
# -- Loading package std_logic_1164
# -- Compiling entity fa
# -- Compiling architecture behavioral of fa
# End time: 21:10:27 on Mar 17,2021, Elapsed time: 0:00:00
# Errors: 0, Warnings: 0
# QuestaSim-64 vcom 10.7c Compiler 2018.08 Aug 17 2018
# Start time: 21:10:27 on Mar 17,2021
# vcom -reportprogress 300 -93 -work work ../src/dadda.vhd 
# -- Loading package STANDARD
# -- Loading package TEXTIO
# -- Loading package std_logic_1164
# -- Loading package NUMERIC_STD
# -- Compiling entity dadda
# -- Compiling architecture structural of dadda
# End time: 21:10:27 on Mar 17,2021, Elapsed time: 0:00:00
# Errors: 0, Warnings: 0
# QuestaSim-64 vcom 10.7c Compiler 2018.08 Aug 17 2018
# Start time: 21:10:28 on Mar 17,2021
# vcom -reportprogress 300 -93 -work work ../src/mbe.vhd 
# -- Loading package STANDARD
# -- Loading package TEXTIO
# -- Loading package std_logic_1164
# -- Compiling entity mbe
# -- Compiling architecture behavioral of mbe
# End time: 21:10:28 on Mar 17,2021, Elapsed time: 0:00:00
# Errors: 0, Warnings: 0
# QuestaSim-64 vcom 10.7c Compiler 2018.08 Aug 17 2018
# Start time: 21:10:28 on Mar 17,2021
# vcom -reportprogress 300 -93 -work work ../src/mult.vhd 
# -- Loading package STANDARD
# -- Loading package TEXTIO
# -- Loading package std_logic_1164
# -- Loading package NUMERIC_STD
# -- Compiling entity mult
# -- Compiling architecture structural of mult
# End time: 21:10:28 on Mar 17,2021, Elapsed time: 0:00:00
# Errors: 0, Warnings: 0
# QuestaSim-64 vcom 10.7c Compiler 2018.08 Aug 17 2018
# Start time: 21:10:28 on Mar 17,2021
# vcom -reportprogress 300 -93 -work work ../src/fpnormalize_fpnormalize.vhd 
# -- Loading package STANDARD
# -- Loading package TEXTIO
# -- Loading package std_logic_1164
# -- Loading package std_logic_arith
# -- Loading package STD_LOGIC_UNSIGNED
# -- Compiling entity FPnormalize
# -- Compiling architecture FPnormalize of FPnormalize
# End time: 21:10:28 on Mar 17,2021, Elapsed time: 0:00:00
# Errors: 0, Warnings: 0
# QuestaSim-64 vcom 10.7c Compiler 2018.08 Aug 17 2018
# Start time: 21:10:28 on Mar 17,2021
# vcom -reportprogress 300 -93 -work work ../src/fpround_fpround.vhd 
# -- Loading package STANDARD
# -- Loading package TEXTIO
# -- Loading package std_logic_1164
# -- Loading package std_logic_arith
# -- Loading package STD_LOGIC_UNSIGNED
# -- Compiling entity FPround
# -- Compiling architecture FPround of FPround
# End time: 21:10:28 on Mar 17,2021, Elapsed time: 0:00:00
# Errors: 0, Warnings: 0
# QuestaSim-64 vcom 10.7c Compiler 2018.08 Aug 17 2018
# Start time: 21:10:28 on Mar 17,2021
# vcom -reportprogress 300 -93 -work work ../src/packfp_packfp.vhd 
# -- Loading package STANDARD
# -- Loading package TEXTIO
# -- Loading package std_logic_1164
# -- Loading package std_logic_arith
# -- Compiling entity PackFP
# -- Compiling architecture PackFP of PackFP
# End time: 21:10:29 on Mar 17,2021, Elapsed time: 0:00:01
# Errors: 0, Warnings: 0
# QuestaSim-64 vcom 10.7c Compiler 2018.08 Aug 17 2018
# Start time: 21:10:29 on Mar 17,2021
# vcom -reportprogress 300 -93 -work work ../src/unpackfp_unpackfp.vhd 
# -- Loading package STANDARD
# -- Loading package TEXTIO
# -- Loading package std_logic_1164
# -- Loading package std_logic_arith
# -- Compiling entity UnpackFP
# -- Compiling architecture UnpackFP of UnpackFP
# End time: 21:10:29 on Mar 17,2021, Elapsed time: 0:00:00
# Errors: 0, Warnings: 0
# QuestaSim-64 vcom 10.7c Compiler 2018.08 Aug 17 2018
# Start time: 21:10:29 on Mar 17,2021
# vcom -reportprogress 300 -93 -work work ../src/fpmul_stage1_struct.vhd 
# -- Loading package STANDARD
# -- Loading package TEXTIO
# -- Loading package std_logic_1164
# -- Loading package std_logic_arith
# -- Compiling entity FPmul_stage1
# -- Compiling architecture struct of FPmul_stage1
# -- Loading entity UnpackFP
# End time: 21:10:29 on Mar 17,2021, Elapsed time: 0:00:00
# Errors: 0, Warnings: 0
# QuestaSim-64 vcom 10.7c Compiler 2018.08 Aug 17 2018
# Start time: 21:10:29 on Mar 17,2021
# vcom -reportprogress 300 -93 -work work ../src/fpmul_stage2_struct_reg_mod.vhd 
# -- Loading package STANDARD
# -- Loading package TEXTIO
# -- Loading package std_logic_1164
# -- Loading package std_logic_arith
# -- Compiling entity FPmul_stage2
# -- Compiling architecture struct of FPmul_stage2
# End time: 21:10:29 on Mar 17,2021, Elapsed time: 0:00:00
# Errors: 0, Warnings: 0
# QuestaSim-64 vcom 10.7c Compiler 2018.08 Aug 17 2018
# Start time: 21:10:29 on Mar 17,2021
# vcom -reportprogress 300 -93 -work work ../src/fpmul_stage3_struct.vhd 
# -- Loading package STANDARD
# -- Loading package TEXTIO
# -- Loading package std_logic_1164
# -- Loading package std_logic_arith
# -- Compiling entity FPmul_stage3
# -- Compiling architecture struct of FPmul_stage3
# -- Loading package STD_LOGIC_UNSIGNED
# -- Loading entity FPnormalize
# -- Loading entity FPround
# End time: 21:10:30 on Mar 17,2021, Elapsed time: 0:00:01
# Errors: 0, Warnings: 0
# QuestaSim-64 vcom 10.7c Compiler 2018.08 Aug 17 2018
# Start time: 21:10:30 on Mar 17,2021
# vcom -reportprogress 300 -93 -work work ../src/fpmul_stage4_struct.vhd 
# -- Loading package STANDARD
# -- Loading package TEXTIO
# -- Loading package std_logic_1164
# -- Loading package std_logic_arith
# -- Compiling entity FPmul_stage4
# -- Compiling architecture struct of FPmul_stage4
# -- Loading package STD_LOGIC_UNSIGNED
# -- Loading entity FPnormalize
# -- Loading entity PackFP
# End time: 21:10:30 on Mar 17,2021, Elapsed time: 0:00:00
# Errors: 0, Warnings: 0
# QuestaSim-64 vcom 10.7c Compiler 2018.08 Aug 17 2018
# Start time: 21:10:30 on Mar 17,2021
# vcom -reportprogress 300 -93 -work work ../src/fpmul_pipeline.vhd 
# -- Loading package STANDARD
# -- Loading package TEXTIO
# -- Loading package std_logic_1164
# -- Loading package std_logic_arith
# -- Compiling entity FPmul
# -- Compiling architecture pipeline of FPmul
# -- Loading entity FPmul_stage1
# -- Loading entity FPmul_stage2
# -- Loading entity FPmul_stage3
# -- Loading entity FPmul_stage4
# End time: 21:10:30 on Mar 17,2021, Elapsed time: 0:00:00
# Errors: 0, Warnings: 0
# QuestaSim-64 vlog 10.7c Compiler 2018.08 Aug 17 2018
# Start time: 21:10:30 on Mar 17,2021
# vlog -reportprogress 300 -sv ../tb/top.sv 
# ** Note: (vlog-2286) ../tb/top.sv(2): Using implicit +incdir+/software/mentor/questa10.7c/questasim/uvm-1.1d/../verilog_src/uvm-1.1d/src from import uvm_pkg
# -- Compiling package top_sv_unit
# -- Importing package mtiUvm.uvm_pkg (uvm-1.1d Built-in)
# ** Warning: ../tb/monitor.sv(49): (vlog-2240) Treating stand-alone use of function 'begin_tr' as an implicit VOID cast.
# ** Warning: ../tb/monitor_out.sv(48): (vlog-2240) Treating stand-alone use of function 'begin_tr' as an implicit VOID cast.
# -- Compiling interface dut_if
# -- Compiling module DUT
# -- Compiling module top
# 
# Top level modules:
# 	top
# End time: 21:10:32 on Mar 17,2021, Elapsed time: 0:00:02
# Errors: 0, Warnings: 2
# vsim top 
# Start time: 21:10:32 on Mar 17,2021
# ** Note: (vsim-3812) Design is being optimized...
# ** Warning: ../tb/monitor.sv(49): (vopt-2240) Treating stand-alone use of function 'begin_tr' as an implicit VOID cast.
# ** Warning: ../tb/monitor_out.sv(48): (vopt-2240) Treating stand-alone use of function 'begin_tr' as an implicit VOID cast.
# Loading sv_std.std
# Loading mtiUvm.uvm_pkg
# Loading work.top_sv_unit(fast)
# Loading work.top(fast)
# Loading work.DUT(fast)
# Loading mtiUvm.questa_uvm_pkg(fast)
# Loading work.dut_if(fast)
# Loading std.standard
# Loading std.textio(body)
# Loading ieee.std_logic_1164(body)
# Loading ieee.std_logic_arith(body)
# Loading work.fpmul(pipeline)#1
# Loading work.fpmul_stage1(struct)#1
# Loading work.unpackfp(unpackfp)#1
# Loading work.fpmul_stage2(struct)#1
# Loading ieee.numeric_std(body)
# Loading work.mult(structural)#1
# Loading work.dadda(structural)#1
# Loading ieee.std_logic_unsigned(body)
# Loading work.fpmul_stage3(struct)#1
# Loading work.fpnormalize(fpnormalize)#1
# Loading work.fpround(fpround)#1
# Loading work.fpmul_stage4(struct)#1
# Loading work.packfp(packfp)#1
# ** Warning: (vsim-3839) Variable '/top/out/data', driven via a port connection, is multiply driven. See ../src/DUT.sv(3).
#    Time: 0 ns  Iteration: 0  Instance: /top/sum File: ../src/DUT.sv Line: 11
# ** Warning: (vsim-3764) Stand-alone call to function 'begin_tr' treated as implicit void cast.
#    Time: 0 ns  Iteration: 0  Region: /top_sv_unit::driver File: ../tb/driver.sv Line: 67
# Loading /software/mentor/questa10.7c/questasim/uvm-1.1d/linux_x86_64/uvm_dpi.so
# ----------------------------------------------------------------
# UVM-1.1d
# (C) 2007-2013 Mentor Graphics Corporation
# (C) 2007-2013 Cadence Design Systems, Inc.
# (C) 2006-2013 Synopsys, Inc.
# (C) 2011-2013 Cypress Semiconductor Corp.
# ----------------------------------------------------------------
# 
#   ***********       IMPORTANT RELEASE NOTES         ************
# 
#   You are using a version of the UVM library that has been compiled
#   with `UVM_NO_DEPRECATED undefined.
#   See http://www.eda.org/svdb/view.php?id=3313 for more details.
# 
#   You are using a version of the UVM library that has been compiled
#   with `UVM_OBJECT_MUST_HAVE_CONSTRUCTOR undefined.
#   See http://www.eda.org/svdb/view.php?id=3770 for more details.
# 
#       (Specify +UVM_NO_RELNOTES to turn off this notice)
# 
# UVM_INFO verilog_src/questa_uvm_pkg-1.2/src/questa_uvm_pkg.sv(215) @ 0: reporter [Questa UVM] QUESTA_UVM-1.2.3
# UVM_INFO verilog_src/questa_uvm_pkg-1.2/src/questa_uvm_pkg.sv(216) @ 0: reporter [Questa UVM]  questa_uvm::init(+struct)
# ** Warning: There is an 'U'|'X'|'W'|'Z'|'-' in an arithmetic operand, the result will be 'X'(es).
#    Time: 0 ns  Iteration: 0  Instance: /top/sum/fpumult_under_test/I3/I11
# ** Warning: There is an 'U'|'X'|'W'|'Z'|'-' in an arithmetic operand, the result will be 'X'(es).
#    Time: 0 ns  Iteration: 0  Instance: /top/sum/fpumult_under_test/I3/I11
# ** Warning: There is an 'U'|'X'|'W'|'Z'|'-' in an arithmetic operand, the result will be 'X'(es).
#    Time: 0 ns  Iteration: 0  Instance: /top/sum/fpumult_under_test/I2
# ** Warning: There is an 'U'|'X'|'W'|'Z'|'-' in an arithmetic operand, the result will be 'X'(es).
#    Time: 0 ns  Iteration: 0  Instance: /top/sum/fpumult_under_test/I2
# ** Warning: There is an 'U'|'X'|'W'|'Z'|'-' in an arithmetic operand, the result will be 'X'(es).
#    Time: 0 ns  Iteration: 0  Instance: /top/sum/fpumult_under_test/I2
# ** Warning: There is an 'U'|'X'|'W'|'Z'|'-' in an arithmetic operand, the result will be 'X'(es).
#    Time: 0 ns  Iteration: 0  Instance: /top/sum/fpumult_under_test/I2
# ** Warning: There is an 'U'|'X'|'W'|'Z'|'-' in an arithmetic operand, the result will be 'X'(es).
#    Time: 0 ns  Iteration: 0  Instance: /top/sum/fpumult_under_test/I2
# UVM_INFO @ 0: reporter [RNTST] Running test simple_test...
# ** Warning: There is an 'U'|'X'|'W'|'Z'|'-' in an arithmetic operand, the result will be 'X'(es).
#    Time: 0 ns  Iteration: 1  Instance: /top/sum/fpumult_under_test/I2
# ** Warning: There is an 'U'|'X'|'W'|'Z'|'-' in an arithmetic operand, the result will be 'X'(es).
#    Time: 0 ns  Iteration: 1  Instance: /top/sum/fpumult_under_test/I2
# ** Warning: There is an 'U'|'X'|'W'|'Z'|'-' in an arithmetic operand, the result will be 'X'(es).
#    Time: 0 ns  Iteration: 1  Instance: /top/sum/fpumult_under_test/I2
# ** Warning: There is an 'U'|'X'|'W'|'Z'|'-' in an arithmetic operand, the result will be 'X'(es).
#    Time: 0 ns  Iteration: 1  Instance: /top/sum/fpumult_under_test/I2
# ** Warning: There is an 'U'|'X'|'W'|'Z'|'-' in an arithmetic operand, the result will be 'X'(es).
#    Time: 15 ns  Iteration: 2  Instance: /top/sum/fpumult_under_test/I2
# ** Warning: There is an 'U'|'X'|'W'|'Z'|'-' in an arithmetic operand, the result will be 'X'(es).
#    Time: 15 ns  Iteration: 2  Instance: /top/sum/fpumult_under_test/I2
# ** Warning: There is an 'U'|'X'|'W'|'Z'|'-' in an arithmetic operand, the result will be 'X'(es).
#    Time: 15 ns  Iteration: 2  Instance: /top/sum/fpumult_under_test/I2
# ** Warning: There is an 'U'|'X'|'W'|'Z'|'-' in an arithmetic operand, the result will be 'X'(es).
#    Time: 15 ns  Iteration: 2  Instance: /top/sum/fpumult_under_test/I2
# ** Warning: There is an 'U'|'X'|'W'|'Z'|'-' in an arithmetic operand, the result will be 'X'(es).
#    Time: 15 ns  Iteration: 3  Instance: /top/sum/fpumult_under_test/I3/I11
# ** Warning: There is an 'U'|'X'|'W'|'Z'|'-' in an arithmetic operand, the result will be 'X'(es).
#    Time: 15 ns  Iteration: 3  Instance: /top/sum/fpumult_under_test/I3/I11
# refmod: input A = 0.000000, input B = 0.000000, output OUT = 0.000000
# refmod: input A = 00101011100100100110001111011001, input B = 00001010011100000010010111111101, output OUT = 00000000000000000000000000001001
# mult: input A = 0.000000, input B = -0.000000, output OUT = 0.000000
# mult: input A = 00000100110010100111111010001011, input B = 10100001000100100111100111110100, output OUT = xxxxxxxxxxxxxxxxxxxxxxxxxxxxxxxx
# UVM_INFO @ 95: reporter [MISCMP] Miscompare for exp.data: lhs = 'h9 : rhs = 'h0
# UVM_INFO @ 95: reporter [MISCMP] 1 Miscompare(s) for object tr@825 vs. exp@617
# UVM_WARNING @ 95: uvm_test_top.env_h.comp [Comparator Mismatch] 
# refmod: input A = 0.000000, input B = -0.000000, output OUT = -0.000000
# refmod: input A = 00000100110010100111111010001011, input B = 10100001000100100111100111110100, output OUT = 10000000000000000000000000000000
# mult: input A = 0.000000, input B = -3634664419216517496832.000000, output OUT = -0.000000
# mult: input A = 00001111100011001011000101110100, input B = 11100011010001010000100100011010, output OUT = 10000000000000000000000000000000
# UVM_INFO @ 165: uvm_test_top.env_h.comp [Comparator Match] 
# refmod: input A = 0.000000, input B = -3634664419216517496832.000000, output OUT = -0.000000
# refmod: input A = 00001111100011001011000101110100, input B = 11100011010001010000100100011010, output OUT = 10110011010110001001001100011110
# mult: input A = -58806067955672318115386974330377207808.000000, input B = -70372476236280636002269185179648.000000, output OUT = -0.000000
# mult: input A = 11111110001100001111011010001100, input B = 11110100010111100000111001101111, output OUT = 10110011010110001001001100011110
# UVM_INFO @ 235: uvm_test_top.env_h.comp [Comparator Match] 
# refmod: input A = -58806067955672318115386974330377207808.000000, input B = -70372476236280636002269185179648.000000, output OUT = 4138328619759654407798352071553426593595978384917322056803401108291584.000000
# refmod: input A = 11111110001100001111011010001100, input B = 11110100010111100000111001101111, output OUT = 01111111100000000000000000000000
# mult: input A = -0.000000, input B = -1123752354475147264.000000, output OUT = inf
# mult: input A = 10011111110111100000100101001111, input B = 11011101011110011000010111101101, output OUT = 01111111100000000000000000000000
# UVM_INFO @ 305: uvm_test_top.env_h.comp [Comparator Match] 
# refmod: input A = -0.000000, input B = -1123752354475147264.000000, output OUT = 0.105673
# refmod: input A = 10011111110111100000100101001111, input B = 11011101011110011000010111101101, output OUT = 00111101110110000110101100110110
# mult: input A = 0.000000, input B = 48.449173, output OUT = 0.105673
# mult: input A = 00001000010111101000011100010110, input B = 01000010010000011100101111110100, output OUT = 00111101110110000110101100110110
# UVM_INFO @ 375: uvm_test_top.env_h.comp [Comparator Match] 
# refmod: input A = 0.000000, input B = 48.449173, output OUT = 0.000000
# refmod: input A = 00001000010111101000011100010110, input B = 01000010010000011100101111110100, output OUT = 00001011001010000111010100100001
# mult: input A = -50696295327635341312.000000, input B = -240329734262254225028284416.000000, output OUT = 0.000000
# mult: input A = 11100000001011111110001101011011, input B = 11101011010001101100101111001101, output OUT = 00001011001010000111010100100001
# UVM_INFO @ 445: uvm_test_top.env_h.comp [Comparator Match] 
# refmod: input A = -50696295327635341312.000000, input B = -240329734262254225028284416.000000, output OUT = 12183827184171362069466213633094737489970593792.000000
# refmod: input A = 11100000001011111110001101011011, input B = 11101011010001101100101111001101, output OUT = 01111111100000000000000000000000
# mult: input A = -0.000000, input B = -493793.500000, output OUT = inf
# mult: input A = 10010110111000011011110110000001, input B = 11001000111100010001110000110000, output OUT = 01111111100000000000000000000000
# UVM_INFO @ 515: uvm_test_top.env_h.comp [Comparator Match] 
# refmod: input A = -0.000000, input B = -493793.500000, output OUT = 0.000000
# refmod: input A = 10010110111000011011110110000001, input B = 11001000111100010001110000110000, output OUT = 00100000010101001001110001000001
# mult: input A = -501561062641451598348288.000000, input B = -961810240.000000, output OUT = 0.000000
# mult: input A = 11100110110101000110101101011100, input B = 11001110011001010101000000111101, output OUT = 00100000010101001001110001000001
# UVM_INFO @ 585: uvm_test_top.env_h.comp [Comparator Match] 
# refmod: input A = -501561062641451598348288.000000, input B = -961810240.000000, output OUT = 482406566033829595755750484869120.000000
# refmod: input A = 11100110110101000110101101011100, input B = 11001110011001010101000000111101, output OUT = 01110101101111100100011010011101
# mult: input A = -0.000000, input B = -0.000000, output OUT = 482406548152044729419664451436544.000000
# mult: input A = 10001101011101001001111010100100, input B = 10101111001000100101100101001001, output OUT = 01110101101111100100011010011101
# UVM_INFO @ 655: uvm_test_top.env_h.comp [Comparator Match] 
# refmod: input A = -0.000000, input B = -0.000000, output OUT = 0.000000
# refmod: input A = 10001101011101001001111010100100, input B = 10101111001000100101100101001001, output OUT = 00000000000000010011011001000011
# mult: input A = 129273919994593280.000000, input B = 11548883943424.000000, output OUT = 0.000000
# mult: input A = 01011011111001011010001011111001, input B = 01010101001010000000111011110010, output OUT = 00000000000000000000000000000000
# UVM_INFO @ 725: reporter [MISCMP] Miscompare for exp.data: lhs = 'h13643 : rhs = 'h0
# UVM_INFO @ 725: reporter [MISCMP] 1 Miscompare(s) for object tr@825 vs. exp@617
# UVM_WARNING @ 725: uvm_test_top.env_h.comp [Comparator Mismatch] 
# refmod: input A = 129273919994593280.000000, input B = 11548883943424.000000, output OUT = 1492969498929037120285410590720.000000
# refmod: input A = 01011011111001011010001011111001, input B = 01010101001010000000111011110010, output OUT = 01110001100101101100000001011011
# mult: input A = -3333851.250000, input B = -1249732403920896000.000000, output OUT = 1492969438909366727935206096896.000000
# mult: input A = 11001010010010110111101101101101, input B = 11011101100010101011111110001000, output OUT = 01110001100101101100000001011011
# UVM_INFO @ 795: uvm_test_top.env_h.comp [Comparator Match] 
# refmod: input A = -3333851.250000, input B = -1249732403920896000.000000, output OUT = 4166421936977184030720000.000000
# refmod: input A = 11001010010010110111101101101101, input B = 11011101100010101011111110001000, output OUT = 01101000010111001001000110001100
# mult: input A = 182071147432965713166336.000000, input B = 0.000000, output OUT = 4166421968740700567633920.000000
# mult: input A = 01100110000110100011100001100011, input B = 00100011110101111111111011100011, output OUT = 01101000010111001001000110001100
# UVM_INFO @ 865: uvm_test_top.env_h.comp [Comparator Match] 
# refmod: input A = 182071147432965713166336.000000, input B = 0.000000, output OUT = 4263795.920363
# refmod: input A = 01100110000110100011100001100011, input B = 00100011110101111111111011100011, output OUT = 01001010100000100001111011101000
# mult: input A = -1030253379584.000000, input B = 0.000000, output OUT = 4263796.000000
# mult: input A = 11010011011011111101111111100011, input B = 00010100111010010111000001010011, output OUT = 01001010100000100001111011101000
# UVM_INFO @ 935: uvm_test_top.env_h.comp [Comparator Match] 
# refmod: input A = -1030253379584.000000, input B = 0.000000, output OUT = -0.000000
# refmod: input A = 11010011011011111101111111100011, input B = 00010100111010010111000001010011, output OUT = 10101000110110101011110000000101
# mult: input A = 0.000000, input B = 205617991305492010681452269142016.000000, output OUT = -0.000000
# mult: input A = 00000101011110110001011100100001, input B = 01110101001000100011010000111001, output OUT = 10101000110110101011110000000101
# UVM_INFO @ 1005: uvm_test_top.env_h.comp [Comparator Match] 
# refmod: input A = 0.000000, input B = 205617991305492010681452269142016.000000, output OUT = 0.002428
# refmod: input A = 00000101011110110001011100100001, input B = 01110101001000100011010000111001, output OUT = 00111011000111110001011111011011
# mult: input A = -0.000010, input B = -0.000000, output OUT = 0.002428
# mult: input A = 10110111001010010010010100011110, input B = 10011011011101101100011111000110, output OUT = 00111011000111110001011111011011
# UVM_INFO @ 1075: uvm_test_top.env_h.comp [Comparator Match] 
# refmod: input A = -0.000010, input B = -0.000000, output OUT = 0.000000
# refmod: input A = 10110111001010010010010100011110, input B = 10011011011101101100011111000110, output OUT = 00010011001000110000110110101010
# mult: input A = 0.000000, input B = 0.000000, output OUT = 0.000000
# mult: input A = 00110100001110011000001000100001, input B = 00100100100111011001010001011011, output OUT = 00010011001000110000110110101010
# UVM_INFO @ 1145: uvm_test_top.env_h.comp [Comparator Match] 
# refmod: input A = 0.000000, input B = 0.000000, output OUT = 0.000000
# refmod: input A = 00110100001110011000001000100001, input B = 00100100100111011001010001011011, output OUT = 00011001011001000110000010011111
# mult: input A = 1166356712064548864.000000, input B = 2.320973, output OUT = 0.000000
# mult: input A = 01011101100000010111110111011010, input B = 01000000000101001000101011010010, output OUT = 00011001011001000110000010011111
# UVM_INFO @ 1215: uvm_test_top.env_h.comp [Comparator Match] 
# refmod: input A = 1166356712064548864.000000, input B = 2.320973, output OUT = 2707082343137017856.000000
# refmod: input A = 01011101100000010111110111011010, input B = 01000000000101001000101011010010, output OUT = 01011110000101100100010111110100
# mult: input A = 10831624352287382568960.000000, input B = 0.000000, output OUT = 2707082289979850752.000000
# mult: input A = 01100100000100101100101110111111, input B = 00011010011111110110110111101110, output OUT = 01011110000101100100010111110100
# UVM_INFO @ 1285: uvm_test_top.env_h.comp [Comparator Match] 
# refmod: input A = 10831624352287382568960.000000, input B = 0.000000, output OUT = 0.572143
# refmod: input A = 01100100000100101100101110111111, input B = 00011010011111110110110111101110, output OUT = 00111111000100100111011111111100
# mult: input A = 433071.968750, input B = -9332405961709026649720344574689280.000000, output OUT = 0.572143
# mult: input A = 01001000110100110111010111111111, input B = 11110111111001100000111111000011, output OUT = 00111111000100100111011111111100
# UVM_INFO @ 1355: uvm_test_top.env_h.comp [Comparator Match] 
# refmod: input A = 433071.968750, input B = -9332405961709026649720344574689280.000000, output OUT = -4041603423011565285840606261889067909120.000000
# refmod: input A = 01001000110100110111010111111111, input B = 11110111111001100000111111000011, output OUT = 11111111100000000000000000000000
# mult: input A = -0.000000, input B = 0.000000, output OUT = -inf
# mult: input A = 10011100110011011100011010010001, input B = 00000010100011001111000011011011, output OUT = 11111111100000000000000000000000
# UVM_INFO @ 1425: uvm_test_top.env_h.comp [Comparator Match] 
# refmod: input A = -0.000000, input B = 0.000000, output OUT = -0.000000
# refmod: input A = 10011100110011011100011010010001, input B = 00000010100011001111000011011011, output OUT = 10000000000000000000000000000000
# mult: input A = -0.000000, input B = -3172271616.000000, output OUT = -0.000000
# mult: input A = 10011011011000010011000001101011, input B = 11001111001111010001010100000110, output OUT = 10000000000000000000000000000000
# UVM_INFO @ 1495: uvm_test_top.env_h.comp [Comparator Match] 
# refmod: input A = -0.000000, input B = -3172271616.000000, output OUT = 0.000000
# refmod: input A = 10011011011000010011000001101011, input B = 11001111001111010001010100000110, output OUT = 00101011001001100101001100111101
# mult: input A = -16187205.000000, input B = 1550565970381440839023463736367120384.000000, output OUT = 0.000000
# mult: input A = 11001011011101101111111101000101, input B = 01111011100101010101000001100111, output OUT = 00101011001001100101001100111101
# UVM_INFO @ 1565: uvm_test_top.env_h.comp [Comparator Match] 
# refmod: input A = -16187205.000000, input B = 1550565970381440839023463736367120384.000000, output OUT = -25099329228588311056644807310640532915486720.000000
# refmod: input A = 11001011011101101111111101000101, input B = 01111011100101010101000001100111, output OUT = 11111111100000000000000000000000
# mult: input A = -0.000000, input B = -4625793262785149272064.000000, output OUT = -inf
# mult: input A = 10100110111000101111100101010011, input B = 11100011011110101100001111000111, output OUT = 11111111100000000000000000000000
# UVM_INFO @ 1635: uvm_test_top.env_h.comp [Comparator Match] 
# refmod: input A = -0.000000, input B = -4625793262785149272064.000000, output OUT = 7285383.703190
# refmod: input A = 10100110111000101111100101010011, input B = 11100011011110101100001111000111, output OUT = 01001010110111100101010100001111
# mult: input A = -0.000001, input B = -2848148461943139598336000.000000, output OUT = 7285383.500000
# mult: input A = 10110101000110001100011001101111, input B = 11101000000101101100011110011100, output OUT = 01001010110111100101010100001111
# UVM_INFO @ 1705: uvm_test_top.env_h.comp [Comparator Match] 
# refmod: input A = -0.000001, input B = -2848148461943139598336000.000000, output OUT = 1620971616444416000.000000
# refmod: input A = 10110101000110001100011001101111, input B = 11101000000101101100011110011100, output OUT = 01011101101100111111011011001001
# mult: input A = 38924423941388322163654656.000000, input B = -0.000000, output OUT = 1620971647362138112.000000
# mult: input A = 01101010000000001100101001000101, input B = 10001100010010000110111000100110, output OUT = 01011101101100111111011011001001
# UVM_INFO @ 1775: uvm_test_top.env_h.comp [Comparator Match] 
# refmod: input A = 38924423941388322163654656.000000, input B = -0.000000, output OUT = -0.000006
# refmod: input A = 01101010000000001100101001000101, input B = 10001100010010000110111000100110, output OUT = 10110110110010011010101011100000
# mult: input A = -0.000033, input B = 0.000000, output OUT = -0.000006
# mult: input A = 10111000000010001000110011000110, input B = 00010101010010110000100001100010, output OUT = 10110110110010011010101011100000
# UVM_INFO @ 1845: uvm_test_top.env_h.comp [Comparator Match] 
# refmod: input A = -0.000033, input B = 0.000000, output OUT = -0.000000
# refmod: input A = 10111000000010001000110011000110, input B = 00010101010010110000100001100010, output OUT = 10001101110110001001100000110011
# mult: input A = -14876033187634695060324352.000000, input B = 306214699008.000000, output OUT = -0.000000
# mult: input A = 11101001010001001110000111110110, input B = 01010010100011101001011110100011, output OUT = 10001101110110001001100000110011
# UVM_INFO @ 1915: uvm_test_top.env_h.comp [Comparator Match] 
# refmod: input A = -14876033187634695060324352.000000, input B = 306214699008.000000, output OUT = -4555260024984576935355085850532642816.000000
# refmod: input A = 11101001010001001110000111110110, input B = 01010010100011101001011110100011, output OUT = 11111100010110110101001111101010
# mult: input A = 961411726681418771211804832109166592.000000, input B = 0.000727, output OUT = -4555259965625034708593452828961275904.000000
# mult: input A = 01111011001110010010100101000010, input B = 00111010001111100111111101111110, output OUT = 11111100010110110101001111101010
# UVM_INFO @ 1985: uvm_test_top.env_h.comp [Comparator Match] 
# refmod: input A = 961411726681418771211804832109166592.000000, input B = 0.000727, output OUT = 698650462477013099588268131876864.000000
# refmod: input A = 01111011001110010010100101000010, input B = 00111010001111100111111101111110, output OUT = 01110110000010011100100011010110
# mult: input A = 0.000000, input B = 0.067238, output OUT = 698650494498808370861047329849344.000000
# mult: input A = 00010110100101000010101000100010, input B = 00111101100010011011001111010101, output OUT = 01110110000010011100100011010110
# UVM_INFO @ 2055: uvm_test_top.env_h.comp [Comparator Match] 
# refmod: input A = 0.000000, input B = 0.067238, output OUT = 0.000000
# refmod: input A = 00010110100101000010101000100010, input B = 00111101100010011011001111010101, output OUT = 00010100100111110110010101000010
# mult: input A = -575227292297662542431600785752064.000000, input B = -0.000000, output OUT = 0.000000
# mult: input A = 11110101111000101110001100011101, input B = 10000110011101011101010110110100, output OUT = 00010100100111110110010101000010
# UVM_INFO @ 2125: uvm_test_top.env_h.comp [Comparator Match] 
# refmod: input A = -575227292297662542431600785752064.000000, input B = -0.000000, output OUT = 0.026596
# refmod: input A = 11110101111000101110001100011101, input B = 10000110011101011101010110110100, output OUT = 00111100110110011110000011000001
# mult: input A = 0.000000, input B = -862.034119, output OUT = 0.026596
# mult: input A = 00101110110100011000100100100100, input B = 11000100010101111000001000101111, output OUT = 00111100110110011110000011000001
# UVM_INFO @ 2195: uvm_test_top.env_h.comp [Comparator Match] 
# refmod: input A = 0.000000, input B = -862.034119, output OUT = -0.000000
# refmod: input A = 00101110110100011000100100100100, input B = 11000100010101111000001000101111, output OUT = 10110011101100000110010010111011
# mult: input A = -0.000004, input B = -0.000000, output OUT = -0.000000
# mult: input A = 10110110011110100010010100100011, input B = 10101001001001001101111100101010, output OUT = 10110011101100000110010010111011
# UVM_INFO @ 2265: uvm_test_top.env_h.comp [Comparator Match] 
# refmod: input A = -0.000004, input B = -0.000000, output OUT = 0.000000
# refmod: input A = 10110110011110100010010100100011, input B = 10101001001001001101111100101010, output OUT = 00100000001000010001100111011010
