lab4/mult/sim/transcript
# //  Questa Sim-64
# //  Version 10.7c linux_x86_64 Aug 17 2018
# //
# //  Copyright 1991-2018 Mentor Graphics Corporation
# //  All Rights Reserved.
# //
# //  QuestaSim and its associated documentation contain trade
# //  secrets and commercial or financial information that are the property of
# //  Mentor Graphics Corporation and are privileged, confidential,
# //  and exempt from disclosure under the Freedom of Information Act,
# //  5 U.S.C. Section 552. Furthermore, this information
# //  is prohibited from disclosure under the Trade Secrets Act,
# //  18 U.S.C. Section 1905.
# //
# vsim top 
# Start time: 19:11:27 on Mar 17,2021
# ** Note: (vsim-3812) Design is being optimized...
# ** Warning: ../tb/monitor.sv(49): (vopt-2240) Treating stand-alone use of function 'begin_tr' as an implicit VOID cast.
# ** Warning: ../tb/monitor_out.sv(48): (vopt-2240) Treating stand-alone use of function 'begin_tr' as an implicit VOID cast.
# Loading sv_std.std
# Loading mtiUvm.uvm_pkg
# Loading work.top_sv_unit(fast)
# Loading work.top(fast)
# Loading work.DUT(fast)
# Loading mtiUvm.questa_uvm_pkg(fast)
# Loading work.dut_if(fast)
# Loading std.standard
# Loading std.textio(body)
# Loading ieee.std_logic_1164(body)
# Loading ieee.numeric_std(body)
# Loading work.mult(structural)#1
# Loading work.dadda(structural)#1
# ** Warning: (vsim-3839) Variable '/top/out/data', driven via a port connection, is multiply driven. See ../src/DUT.sv(3).
#    Time: 0 ns  Iteration: 0  Instance: /top/sum File: ../src/DUT.sv Line: 9
# ** Warning: (vsim-3764) Stand-alone call to function 'begin_tr' treated as implicit void cast.
#    Time: 0 ns  Iteration: 0  Region: /top_sv_unit::driver File: ../tb/driver.sv Line: 67
# Loading /software/mentor/questa10.7c/questasim/uvm-1.1d/linux_x86_64/uvm_dpi.so
run 4 us
# ----------------------------------------------------------------
# UVM-1.1d
# (C) 2007-2013 Mentor Graphics Corporation
# (C) 2007-2013 Cadence Design Systems, Inc.
# (C) 2006-2013 Synopsys, Inc.
# (C) 2011-2013 Cypress Semiconductor Corp.
# ----------------------------------------------------------------
# 
#   ***********       IMPORTANT RELEASE NOTES         ************
# 
#   You are using a version of the UVM library that has been compiled
#   with `UVM_NO_DEPRECATED undefined.
#   See http://www.eda.org/svdb/view.php?id=3313 for more details.
# 
#   You are using a version of the UVM library that has been compiled
#   with `UVM_OBJECT_MUST_HAVE_CONSTRUCTOR undefined.
#   See http://www.eda.org/svdb/view.php?id=3770 for more details.
# 
#       (Specify +UVM_NO_RELNOTES to turn off this notice)
# 
# UVM_INFO verilog_src/questa_uvm_pkg-1.2/src/questa_uvm_pkg.sv(215) @ 0: reporter [Questa UVM] QUESTA_UVM-1.2.3
# UVM_INFO verilog_src/questa_uvm_pkg-1.2/src/questa_uvm_pkg.sv(216) @ 0: reporter [Questa UVM]  questa_uvm::init(+struct)
# UVM_INFO @ 0: reporter [RNTST] Running test simple_test...
# mult: input A =  731014105, input B =  175121917, output OUT =   128016591421639285
# mult: input A = 00101011100100100110001111011001, input B = 00001010011100000010010111111101, output OUT = 0000000111000110110011100110100101100001000010110000101001110101
# refmod: input A =   731014105, input B =   175121917, output OUT =    128016591421639285
# refmod: input A = 00101011100100100110001111011001, input B = 00001010011100000010010111111101, output OUT = 0000000111000110110011100110100101100001000010110000101001110101
# UVM_INFO @ 45: uvm_test_top.env_h.comp [Comparator Match] 
# mult: input A =   80379531, input B = 2702342644, output OUT =   217213034326019964
# mult: input A = 00000100110010100111111010001011, input B = 10100001000100100111100111110100, output OUT = 0000001100000011101100100001101010010111100101100100111101111100
# refmod: input A =    80379531, input B = -1592624652, output OUT =   -128014422586798212
# refmod: input A = 00000100110010100111111010001011, input B = 10100001000100100111100111110100, output OUT = 1111111000111001001100111000111110010111100101100100111101111100
# UVM_INFO @ 75: reporter [MISCMP] Miscompare for exp.data: lhs = 'hfe39338f97964f7c : rhs = 'h303b21a97964f7c
# UVM_INFO @ 75: reporter [MISCMP] 1 Miscompare(s) for object tr@825 vs. exp@617
# UVM_WARNING @ 75: uvm_test_top.env_h.comp [Comparator Mismatch] 
# mult: input A =  260878708, input B = 3812952346, output OUT =   994718081690048968
# mult: input A = 00001111100011001011000101110100, input B = 11100011010001010000100100011010, output OUT = 0000110111001101111100101101001100110110110010110001100111001000
# refmod: input A =   260878708, input B =  -482014950, output OUT =   -125747437392684600
# refmod: input A = 00001111100011001011000101110100, input B = 11100011010001010000100100011010, output OUT = 1111111001000001010000010101111100110110110010110001100111001000
# UVM_INFO @ 105: reporter [MISCMP] Miscompare for exp.data: lhs = 'hfe41415f36cb19c8 : rhs = 'hdcdf2d336cb19c8
# UVM_INFO @ 105: reporter [MISCMP] 1 Miscompare(s) for object tr@825 vs. exp@617
# UVM_WARNING @ 105: uvm_test_top.env_h.comp [Comparator Mismatch] 
# mult: input A = 4264621708, input B = 4099804783, output OUT = 18322333086688058851
# mult: input A = 11111110001100001111011010001100, input B = 11110100010111100000111001101111, output OUT = 1111111001000110000000001101110111010000011011011001110111100011
# refmod: input A =   -30345588, input B =  -195162513, output OUT =      5922321212542644
# refmod: input A = 11111110001100001111011010001100, input B = 11110100010111100000111001101111, output OUT = 0000000000010101000010100101000111011100000111101000111010110100
# UVM_INFO @ 135: reporter [MISCMP] Miscompare for exp.data: lhs = 'h150a51dc1e8eb4 : rhs = 'hfe4600ddd06d9de3
# UVM_INFO @ 135: reporter [MISCMP] 1 Miscompare(s) for object tr@825 vs. exp@617
# UVM_WARNING @ 135: uvm_test_top.env_h.comp [Comparator Mismatch] 
# mult: input A = 2682128719, input B = 3715728877, output OUT = 12453873198359408144
# mult: input A = 10011111110111100000100101001111, input B = 11011101011110011000010111101101, output OUT = 1010110011010101000010111011000011000001111110000110111000010000
# refmod: input A = -1612838577, input B =  -579238419, output OUT =    934218067443689763
# refmod: input A = 10011111110111100000100101001111, input B = 11011101011110011000010111101101, output OUT = 0000110011110111000000100110000111110100101110111010100100100011
# UVM_INFO @ 165: reporter [MISCMP] Miscompare for exp.data: lhs = 'hcf70261f4bba923 : rhs = 'hacd50bb0c1f86e10
# UVM_INFO @ 165: reporter [MISCMP] 1 Miscompare(s) for object tr@825 vs. exp@617
# UVM_WARNING @ 165: uvm_test_top.env_h.comp [Comparator Mismatch] 
# mult: input A =  140412694, input B = 1111608308, output OUT =   156083917199061752
# mult: input A = 00001000010111101000011100010110, input B = 01000010010000011100101111110100, output OUT = 0000001000101010100001010111111011100111110011010011001011111000
# refmod: input A =   140412694, input B =  1111608308, output OUT =    156083917199061752
# refmod: input A = 00001000010111101000011100010110, input B = 01000010010000011100101111110100, output OUT = 0000001000101010100001010111111011100111110011010011001011111000
# UVM_INFO @ 195: uvm_test_top.env_h.comp [Comparator Match] 
# mult: input A = 3761234779, input B = 3947285453, output OUT = 16339949473214432428
# mult: input A = 11100000001011111110001101011011, input B = 11101011010001101100101111001101, output OUT = 1110001011000011001010010111100100011110110001110000010010101100
# refmod: input A =  -533732517, input B =  -347681843, output OUT =    185569105179588831
# refmod: input A = 11100000001011111110001101011011, input B = 11101011010001101100101111001101, output OUT = 0000001010010011010001100001111000110011100001000011100011011111
# UVM_INFO @ 225: reporter [MISCMP] Miscompare for exp.data: lhs = 'h293461e338438df : rhs = 'he2c329791ec704ac
# UVM_INFO @ 225: reporter [MISCMP] 1 Miscompare(s) for object tr@825 vs. exp@617
# UVM_WARNING @ 225: uvm_test_top.env_h.comp [Comparator Mismatch] 
# mult: input A = 2531376513, input B = 3371244592, output OUT = 12501248183163138144
# mult: input A = 10010110111000011011110110000001, input B = 11001000111100010001110000110000, output OUT = 1010110101111101010110101111110011110110011011111011000001100000
# refmod: input A = -1763590783, input B =  -923722704, output OUT =   1629068846822237232
# refmod: input A = 10010110111000011011110110000001, input B = 11001000111100010001110000110000, output OUT = 0001011010011011100111010111110000101001011111101010010000110000
# UVM_INFO @ 255: reporter [MISCMP] Miscompare for exp.data: lhs = 'h169b9d7c297ea430 : rhs = 'had7d5afcf66fb060
# UVM_INFO @ 255: reporter [MISCMP] 1 Miscompare(s) for object tr@825 vs. exp@617
# UVM_WARNING @ 255: uvm_test_top.env_h.comp [Comparator Mismatch] 
# mult: input A = 3872680796, input B = 3462746173, output OUT = 16984473111106397481
# mult: input A = 11100110110101000110101101011100, input B = 11001110011001010101000000111101, output OUT = 1110101110110100111110000100111010010100101010111010010100101001
# refmod: input A =  -422286500, input B =  -832221123, output OUT =    351435745257739500
# refmod: input A = 11100110110101000110101101011100, input B = 11001110011001010101000000111101, output OUT = 0000010011100000100011001111001011000101011101100101010011101100
# UVM_INFO @ 285: reporter [MISCMP] Miscompare for exp.data: lhs = 'h4e08cf2c57654ec : rhs = 'hebb4f84e94aba529
# UVM_INFO @ 285: reporter [MISCMP] 1 Miscompare(s) for object tr@825 vs. exp@617
# UVM_WARNING @ 285: uvm_test_top.env_h.comp [Comparator Mismatch] 
# mult: input A = 2373230244, input B = 2938263881, output OUT = 12800173503682940433
# mult: input A = 10001101011101001001111010100100, input B = 10101111001000100101100101001001, output OUT = 1011000110100011010110011111101110111110011000111000111000010001
# refmod: input A = -1921737052, input B = -1356703415, output OUT =   2607227221180432580
# refmod: input A = 10001101011101001001111010100100, input B = 10101111001000100101100101001001, output OUT = 0010010000101110101110110101100000001111001100000100000011000100
# UVM_INFO @ 315: reporter [MISCMP] Miscompare for exp.data: lhs = 'h242ebb580f3040c4 : rhs = 'hb1a359fbbe638e11
# UVM_INFO @ 315: reporter [MISCMP] 1 Miscompare(s) for object tr@825 vs. exp@617
# UVM_WARNING @ 315: uvm_test_top.env_h.comp [Comparator Mismatch] 
# mult: input A = 1541776121, input B = 1428688626, output OUT =  2202718007911099746
# mult: input A = 01011011111001011010001011111001, input B = 01010101001010000000111011110010, output OUT = 0001111010010001101000000101101110010001111001011010110101100010
# refmod: input A =  1541776121, input B =  1428688626, output OUT =   2202718007911099746
# refmod: input A = 01011011111001011010001011111001, input B = 01010101001010000000111011110010, output OUT = 0001111010010001101000000101101110010001111001011010110101100010
# UVM_INFO @ 345: uvm_test_top.env_h.comp [Comparator Match] 
# mult: input A = 3393944429, input B = 3716857736, output OUT = 15097770259328574644
# mult: input A = 11001010010010110111101101101101, input B = 11011101100010101011111110001000, output OUT = 1101000110000110000011100000111100110111101111001010010010110100
# refmod: input A =  -901022867, input B =  -578109560, output OUT =    520889933191308520
# refmod: input A = 11001010010010110111101101101101, input B = 11011101100010101011111110001000, output OUT = 0000011100111010100100101010001001101010111100011110010011101000
# UVM_INFO @ 375: reporter [MISCMP] Miscompare for exp.data: lhs = 'h73a92a26af1e4e8 : rhs = 'hd1860e0f37bca4b4
# UVM_INFO @ 375: reporter [MISCMP] 1 Miscompare(s) for object tr@825 vs. exp@617
# UVM_WARNING @ 375: uvm_test_top.env_h.comp [Comparator Mismatch] 
# mult: input A = 1712994403, input B =  601358051, output OUT =  1030122975561988553
# mult: input A = 01100110000110100011100001100011, input B = 00100011110101111111111011100011, output OUT = 0000111001001011101110110110001101110001010101110011100111001001
# refmod: input A =  1712994403, input B =   601358051, output OUT =   1030122975561988553
# refmod: input A = 01100110000110100011100001100011, input B = 00100011110101111111111011100011, output OUT = 0000111001001011101110110110001101110001010101110011100111001001
# UVM_INFO @ 405: uvm_test_top.env_h.comp [Comparator Match] 
# mult: input A = 3547324387, input B =  350842963, output OUT = 18184438820601140972
# mult: input A = 11010011011011111101111111100011, input B = 00010100111010010111000001010011, output OUT = 1111110001011100000110101100001100010101110000010001011011101100
# refmod: input A =  -747642909, input B =   350842963, output OUT =   -262305253459499367
# refmod: input A = 11010011011011111101111111100011, input B = 00010100111010010111000001010011, output OUT = 1111110001011100000110101100001100000000110100111110011010011001
# UVM_INFO @ 435: reporter [MISCMP] Miscompare for exp.data: lhs = 'hfc5c1ac300d3e699 : rhs = 'hfc5c1ac315c116ec
# UVM_INFO @ 435: reporter [MISCMP] 1 Miscompare(s) for object tr@825 vs. exp@617
# UVM_WARNING @ 435: uvm_test_top.env_h.comp [Comparator Mismatch] 
# mult: input A =   91952929, input B = 1965175865, output OUT =   180703676786858585
# mult: input A = 00000101011110110001011100100001, input B = 01110101001000100011010000111001, output OUT = 0000001010000001111111010000100101100000011111001101101001011001
# refmod: input A =    91952929, input B =  1965175865, output OUT =    180703676786858585
# refmod: input A = 00000101011110110001011100100001, input B = 01110101001000100011010000111001, output OUT = 0000001010000001111111010000100101100000011111001101101001011001
# UVM_INFO @ 465: uvm_test_top.env_h.comp [Comparator Match] 
# mult: input A = 3072927006, input B = 2608252870, output OUT = 15259353979175553783
# mult: input A = 10110111001010010010010100011110, input B = 10011011011101101100011111000110, output OUT = 1101001111000100000111011001100010110110101100111100101011110111
# refmod: input A = -1222040290, input B = -1686714426, output OUT =   2061232986296223540
# refmod: input A = 10110111001010010010010100011110, input B = 10011011011101101100011111000110, output OUT = 0001110010011010111110000111101011101011100000010000011100110100
# UVM_INFO @ 495: reporter [MISCMP] Miscompare for exp.data: lhs = 'h1c9af87aeb810734 : rhs = 'hd3c41d98b6b3caf7
# UVM_INFO @ 495: reporter [MISCMP] 1 Miscompare(s) for object tr@825 vs. exp@617
# UVM_WARNING @ 495: uvm_test_top.env_h.comp [Comparator Mismatch] 
# mult: input A =  876184097, input B =  614306907, output OUT =   538245942590657979
# mult: input A = 00110100001110011000001000100001, input B = 00100100100111011001010001011011, output OUT = 0000011101111000001110111101010101000001111010010101010110111011
# refmod: input A =   876184097, input B =   614306907, output OUT =    538245942590657979
# refmod: input A = 00110100001110011000001000100001, input B = 00100100100111011001010001011011, output OUT = 0000011101111000001110111101010101000001111010010101010110111011
# UVM_INFO @ 525: uvm_test_top.env_h.comp [Comparator Match] 
# mult: input A = 1568767450, input B = 1075088082, output OUT =  1686563188924530900
# mult: input A = 01011101100000010111110111011010, input B = 01000000000101001000101011010010, output OUT = 0001011101100111111000000100100011010111000110001100000011010100
# refmod: input A =  1568767450, input B =  1075088082, output OUT =   1686563188924530900
# refmod: input A = 01011101100000010111110111011010, input B = 01000000000101001000101011010010, output OUT = 0001011101100111111000000100100011010111000110001100000011010100
# UVM_INFO @ 555: uvm_test_top.env_h.comp [Comparator Match] 
# mult: input A = 1678953407, input B =  444558830, output OUT =   746393562240433810
# mult: input A = 01100100000100101100101110111111, input B = 00011010011111110110110111101110, output OUT = 0000101001011011101110001111110110000011111110101011111010010010
# refmod: input A =  1678953407, input B =   444558830, output OUT =    746393562240433810
# refmod: input A = 01100100000100101100101110111111, input B = 00011010011111110110110111101110, output OUT = 0000101001011011101110001111110110000011111110101011111010010010
# UVM_INFO @ 585: uvm_test_top.env_h.comp [Comparator Match] 
# mult: input A = 1221817855, input B = 4159049667, output OUT =  5081601142972404285
# mult: input A = 01001000110100110111010111111111, input B = 11110111111001100000111111000011, output OUT = 0100011010000101011110010101000011101001000101101101001000111101
# refmod: input A =  1221817855, input B =  -135917629, output OUT =   -166066585921465795
# refmod: input A = 01001000110100110111010111111111, input B = 11110111111001100000111111000011, output OUT = 1111110110110010000000110101000111101001000101101101001000111101
# UVM_INFO @ 615: reporter [MISCMP] Miscompare for exp.data: lhs = 'hfdb20351e916d23d : rhs = 'h46857950e916d23d
# UVM_INFO @ 615: reporter [MISCMP] 1 Miscompare(s) for object tr@825 vs. exp@617
# UVM_WARNING @ 615: uvm_test_top.env_h.comp [Comparator Mismatch] 
# mult: input A = 2630731409, input B =   42791131, output OUT = 18375529537901018838
# mult: input A = 10011100110011011100011010010001, input B = 00000010100011001111000011011011, output OUT = 1111111100000010111111101100000111001010010010011011111011010110
# refmod: input A = -1664235887, input B =    42791131, output OUT =    -71214535855518197
# refmod: input A = 10011100110011011100011010010001, input B = 00000010100011001111000011011011, output OUT = 1111111100000010111111101100000111000111011111001100111000001011
# UVM_INFO @ 645: reporter [MISCMP] Miscompare for exp.data: lhs = 'hff02fec1c77cce0b : rhs = 'hff02fec1ca49bed6
# UVM_INFO @ 645: reporter [MISCMP] 1 Miscompare(s) for object tr@825 vs. exp@617
# UVM_WARNING @ 645: uvm_test_top.env_h.comp [Comparator Mismatch] 
# mult: input A = 2606837867, input B = 3476886790, output OUT = 12577309161391128197
# mult: input A = 10011011011000010011000001101011, input B = 11001111001111010001010100000110, output OUT = 1010111010001011100101000000101101111010111110111111111010000101
# refmod: input A = -1688129429, input B =  -818080506, output OUT =   1381025777469811074
# refmod: input A = 10011011011000010011000001101011, input B = 11001111001111010001010100000110, output OUT = 0001001100101010011000111010000010101011101111101110100110000010
# UVM_INFO @ 675: reporter [MISCMP] Miscompare for exp.data: lhs = 'h132a63a0abbee982 : rhs = 'hae8b940b7afbfe85
# UVM_INFO @ 675: reporter [MISCMP] 1 Miscompare(s) for object tr@825 vs. exp@617
# UVM_WARNING @ 675: uvm_test_top.env_h.comp [Comparator Mismatch] 
# mult: input A = 3413573445, input B = 2073383015, output OUT = 16619277034524546294
# mult: input A = 11001011011101101111111101000101, input B = 01111011100101010101000001100111, output OUT = 1110011010100011100010000110100100000010101001001001010011110110
# refmod: input A =  -881393851, input B =  2073383015, output OUT =  -1827467040188840765
# refmod: input A = 11001011011101101111111101000101, input B = 01111011100101010101000001100111, output OUT = 1110011010100011100010000110100011000110110011110100010011000011
# UVM_INFO @ 705: reporter [MISCMP] Miscompare for exp.data: lhs = 'he6a38868c6cf44c3 : rhs = 'he6a3886902a494f6
# UVM_INFO @ 705: reporter [MISCMP] 1 Miscompare(s) for object tr@825 vs. exp@617
# UVM_WARNING @ 705: uvm_test_top.env_h.comp [Comparator Mismatch] 
# mult: input A = 2799892819, input B = 3816473543, output OUT = 12740831887210237000
# mult: input A = 10100110111000101111100101010011, input B = 11100011011110101100001111000111, output OUT = 1011000011010000100001110001100011111100001000101100110001001000
# refmod: input A = -1495074477, input B =  -478493753, output OUT =    715383797514242181
# refmod: input A = 10100110111000101111100101010011, input B = 11100011011110101100001111000111, output OUT = 0000100111101101100011011100011000001000111010000000100010000101
# UVM_INFO @ 735: reporter [MISCMP] Miscompare for exp.data: lhs = 'h9ed8dc608e80885 : rhs = 'hb0d08718fc22cc48
# UVM_INFO @ 735: reporter [MISCMP] 1 Miscompare(s) for object tr@825 vs. exp@617
# UVM_WARNING @ 735: uvm_test_top.env_h.comp [Comparator Mismatch] 
# mult: input A = 3038299759, input B = 3893807004, output OUT = 13553523216105207920
# mult: input A = 10110101000110001100011001101111, input B = 11101000000101101100011110011100, output OUT = 1011110000010111110010011000111000101110111101011111100001110000
# refmod: input A = -1256667537, input B =  -401160292, output OUT =    504125116089840804
# refmod: input A = 10110101000110001100011001101111, input B = 11101000000101101100011110011100, output OUT = 0000011011111111000000110001111101000010111000110011010010100100
# UVM_INFO @ 765: reporter [MISCMP] Miscompare for exp.data: lhs = 'h6ff031f42e334a4 : rhs = 'hbc17c98e2ef5f870
# UVM_INFO @ 765: reporter [MISCMP] 1 Miscompare(s) for object tr@825 vs. exp@617
# UVM_WARNING @ 765: uvm_test_top.env_h.comp [Comparator Mismatch] 
# mult: input A = 1778436677, input B = 2353557030, output OUT =  4185652143563189310
# mult: input A = 01101010000000001100101001000101, input B = 10001100010010000110111000100110, output OUT = 0011101000010110011011000111001010110010011011111010110000111110
# refmod: input A =  1778436677, input B = -1941410266, output OUT =  -3452675222158726082
# refmod: input A = 01101010000000001100101001000101, input B = 10001100010010000110111000100110, output OUT = 1101000000010101101000100010110110110010011011111010110000111110
# UVM_INFO @ 795: reporter [MISCMP] Miscompare for exp.data: lhs = 'hd015a22db26fac3e : rhs = 'h3a166c72b26fac3e
# UVM_INFO @ 795: reporter [MISCMP] 1 Miscompare(s) for object tr@825 vs. exp@617
# UVM_WARNING @ 795: uvm_test_top.env_h.comp [Comparator Mismatch] 
# mult: input A = 3087568070, input B =  357238882, output OUT = 18015414124442886143
# mult: input A = 10111000000010001000110011000110, input B = 00010101010010110000100001100010, output OUT = 1111101000000011100110111011001001001000111110010001111111111111
# refmod: input A = -1207399226, input B =   357238882, output OUT =   -431329949623905332
# refmod: input A = 10111000000010001000110011000110, input B = 00010101010010110000100001100010, output OUT = 1111101000000011100110111011001000110011101011100001001111001100
# UVM_INFO @ 825: reporter [MISCMP] Miscompare for exp.data: lhs = 'hfa039bb233ae13cc : rhs = 'hfa039bb248f91fff
# UVM_INFO @ 825: reporter [MISCMP] 1 Miscompare(s) for object tr@825 vs. exp@617
# UVM_WARNING @ 825: uvm_test_top.env_h.comp [Comparator Mismatch] 
# mult: input A = 3913605622, input B = 1385076643, output OUT = 17918528927906057557
# mult: input A = 11101001010001001110000111110110, input B = 01010010100011101001011110100011, output OUT = 1111100010101011011001110001111110011101011001101100110101010101
# refmod: input A =  -381361674, input B =  1385076643, output OUT =   -528215147192780382
# refmod: input A = 11101001010001001110000111110110, input B = 01010010100011101001011110100011, output OUT = 1111100010101011011001110001111101001010100101111111100110100010
# UVM_INFO @ 855: reporter [MISCMP] Miscompare for exp.data: lhs = 'hf8ab671f4a97f9a2 : rhs = 'hf8ab671f9d66cd55
# UVM_INFO @ 855: reporter [MISCMP] 1 Miscompare(s) for object tr@825 vs. exp@617
# UVM_WARNING @ 855: uvm_test_top.env_h.comp [Comparator Mismatch] 
# mult: input A = 2067343682, input B =  977174398, output OUT =  2020155317917453436
# mult: input A = 01111011001110010010100101000010, input B = 00111010001111100111111101111110, output OUT = 0001110000001001000010001000111011110011100101100000110001111100
# refmod: input A =  2067343682, input B =   977174398, output OUT =   2020155317917453436
# refmod: input A = 01111011001110010010100101000010, input B = 00111010001111100111111101111110, output OUT = 0001110000001001000010001000111011110011100101100000110001111100
# UVM_INFO @ 885: uvm_test_top.env_h.comp [Comparator Match] 
# mult: input A =  378808866, input B = 1032434645, output OUT =   391095397091562570
# mult: input A = 00010110100101000010101000100010, input B = 00111101100010011011001111010101, output OUT = 0000010101101101011100110011000100001000111011101101010001001010
# refmod: input A =   378808866, input B =  1032434645, output OUT =    391095397091562570
# refmod: input A = 00010110100101000010101000100010, input B = 00111101100010011011001111010101, output OUT = 0000010101101101011100110011000100001000111011101101010001001010
# UVM_INFO @ 915: uvm_test_top.env_h.comp [Comparator Match] 
# mult: input A = 4125287197, input B = 2255869364, output OUT = 18063967935675016728
# mult: input A = 11110101111000101110001100011101, input B = 10000110011101011101010110110100, output OUT = 1111101010110000000110110010000101100111111101001010011000011000
# refmod: input A =  -169680099, input B = -2039097932, output OUT =    345994338972455268
# refmod: input A = 11110101111000101110001100011101, input B = 10000110011101011101010110110100, output OUT = 0000010011001101001110000000010010100100101111111101000101100100
# UVM_INFO @ 945: reporter [MISCMP] Miscompare for exp.data: lhs = 'h4cd3804a4bfd164 : rhs = 'hfab01b2167f4a618
# UVM_INFO @ 945: reporter [MISCMP] 1 Miscompare(s) for object tr@825 vs. exp@617
# UVM_WARNING @ 945: uvm_test_top.env_h.comp [Comparator Mismatch] 
# mult: input A =  785484068, input B = 3294069295, output OUT =  2587438950110492060
# mult: input A = 00101110110100011000100100100100, input B = 11000100010101111000001000101111, output OUT = 0010001111101000011011100000010000101011010110000111010110011100
# refmod: input A =   785484068, input B = -1000898001, output OUT =   -786189433478548068
# refmod: input A = 00101110110100011000100100100100, input B = 11000100010101111000001000101111, output OUT = 1111010100010110111001001110000000101011010110000111010110011100
# UVM_INFO @ 975: reporter [MISCMP] Miscompare for exp.data: lhs = 'hf516e4e02b58759c : rhs = 'h23e86e042b58759c
# UVM_INFO @ 975: reporter [MISCMP] 1 Miscompare(s) for object tr@825 vs. exp@617
# UVM_WARNING @ 975: uvm_test_top.env_h.comp [Comparator Mismatch] 
# mult: input A = 3061458211, input B = 2837765930, output OUT = 14946334016562029545
# mult: input A = 10110110011110100010010100100011, input B = 10101001001001001101111100101010, output OUT = 1100111101101100000010111001100101010111100001000110001111101001
# refmod: input A = -1233509085, input B = -1457201366, output OUT =   1797471123635410110
# refmod: input A = 10110110011110100010010100100011, input B = 10101001001001001101111100101010, output OUT = 0001100011110001111001100111011010101010010011111001010010111110
# UVM_INFO @ 1005: reporter [MISCMP] Miscompare for exp.data: lhs = 'h18f1e676aa4f94be : rhs = 'hcf6c0b99578463e9
# UVM_INFO @ 1005: reporter [MISCMP] 1 Miscompare(s) for object tr@825 vs. exp@617
# UVM_WARNING @ 1005: uvm_test_top.env_h.comp [Comparator Mismatch] 
# mult: input A = 1544876891, input B = 1738059493, output OUT =  2685087945918876263
# mult: input A = 01011100000101001111001101011011, input B = 01100111100110001010111011100101, output OUT = 0010010101000011010110010100001010110111001011011000101001100111
# refmod: input A =  1544876891, input B =  1738059493, output OUT =   2685087945918876263
# refmod: input A = 01011100000101001111001101011011, input B = 01100111100110001010111011100101, output OUT = 0010010101000011010110010100001010110111001011011000101001100111
# UVM_INFO @ 1035: uvm_test_top.env_h.comp [Comparator Match] 
# mult: input A = 1961337323, input B = 2703619792, output OUT =  5302710405251096816
# mult: input A = 01110100111001111010000111101011, input B = 10100001001001011111011011010000, output OUT = 0100100110010111000000110000010011000011110000100110000011110000
# refmod: input A =  1961337323, input B = -1591347504, output OUT =  -3121169253458091792
# refmod: input A = 01110100111001111010000111101011, input B = 10100001001001011111011011010000, output OUT = 1101010010101111011000010001100111000011110000100110000011110000
# UVM_INFO @ 1065: reporter [MISCMP] Miscompare for exp.data: lhs = 'hd4af6119c3c260f0 : rhs = 'h49970304c3c260f0
# UVM_INFO @ 1065: reporter [MISCMP] 1 Miscompare(s) for object tr@825 vs. exp@617
# UVM_WARNING @ 1065: uvm_test_top.env_h.comp [Comparator Mismatch] 
# mult: input A = 1727143128, input B =  724064169, output OUT =  1250562453719380632
# mult: input A = 01100110111100100001110011011000, input B = 00101011001010000101011110101001, output OUT = 0001000101011010111000111110110100000111011000100111001010011000
# refmod: input A =  1727143128, input B =   724064169, output OUT =   1250562453719380632
# refmod: input A = 01100110111100100001110011011000, input B = 00101011001010000101011110101001, output OUT = 0001000101011010111000111110110100000111011000100111001010011000
# UVM_INFO @ 1095: uvm_test_top.env_h.comp [Comparator Match] 
# mult: input A =  246654637, input B = 1595147461, output OUT =   393450517954426657
# mult: input A = 00001110101100111010011010101101, input B = 01011111000101000000010011000101, output OUT = 0000010101110101110100010010100101010111010111011111011100100001
# refmod: input A =   246654637, input B =  1595147461, output OUT =    393450517954426657
# refmod: input A = 00001110101100111010011010101101, input B = 01011111000101000000010011000101, output OUT = 0000010101110101110100010010100101010111010111011111011100100001
# UVM_INFO @ 1125: uvm_test_top.env_h.comp [Comparator Match] 
# mult: input A = 1646293169, input B = 3201576091, output OUT =  5270732848647022379
# mult: input A = 01100010001000000111000010110001, input B = 10111110110101000010110010011011, output OUT = 0100100100100101011001111001100110101101100101101010011100101011
# refmod: input A =  1646293169, input B = -1093391205, output OUT =  -1800042471836178645
# refmod: input A = 01100010001000000111000010110001, input B = 10111110110101000010110010011011, output OUT = 1110011100000100111101101110100010101101100101101010011100101011
# UVM_INFO @ 1155: reporter [MISCMP] Miscompare for exp.data: lhs = 'he704f6e8ad96a72b : rhs = 'h49256799ad96a72b
# UVM_INFO @ 1155: reporter [MISCMP] 1 Miscompare(s) for object tr@825 vs. exp@617
# UVM_WARNING @ 1155: uvm_test_top.env_h.comp [Comparator Mismatch] 
# mult: input A = 3948884356, input B = 1247084803, output OUT = 18015149299921852815
# mult: input A = 11101011010111110011000110000100, input B = 01001010010101010000000100000011, output OUT = 1111101000000010101010101101011100000101011110000001100110001111
# refmod: input A =  -346082940, input B =  1247084803, output OUT =   -431594775051560820
# refmod: input A = 11101011010111110011000110000100, input B = 01001010010101010000000100000011, output OUT = 1111101000000010101010101101011010111010001000110001100010001100
# UVM_INFO @ 1185: reporter [MISCMP] Miscompare for exp.data: lhs = 'hfa02aad6ba23188c : rhs = 'hfa02aad70578198f
# UVM_INFO @ 1185: reporter [MISCMP] 1 Miscompare(s) for object tr@825 vs. exp@617
# UVM_WARNING @ 1185: uvm_test_top.env_h.comp [Comparator Mismatch] 
# mult: input A = 1637527070, input B =  818587330, output OUT =  1340458912034023100
# mult: input A = 01100001100110101010111000011110, input B = 00110000110010101010011011000010, output OUT = 0001001010011010010001000100011101000111110010110110011010111100
# refmod: input A =  1637527070, input B =   818587330, output OUT =   1340458912034023100
# refmod: input A = 01100001100110101010111000011110, input B = 00110000110010101010011011000010, output OUT = 0001001010011010010001000100011101000111110010110110011010111100
# UVM_INFO @ 1215: uvm_test_top.env_h.comp [Comparator Match] 
# mult: input A =  268764860, input B = 2202569796, output OUT =   591973362862168560
# mult: input A = 00010000000001010000011010111100, input B = 10000011010010001000110001000100, output OUT = 0000100000110111000111001010001100011001111001001001100111110000
# refmod: input A =   268764860, input B = -2092397500, output OUT =   -562362921151850000
# refmod: input A = 00010000000001010000011010111100, input B = 10000011010010001000110001000100, output OUT = 1111100000110010000101011110011100011001111001001001100111110000
# UVM_INFO @ 1245: reporter [MISCMP] Miscompare for exp.data: lhs = 'hf83215e719e499f0 : rhs = 'h8371ca319e499f0
# UVM_INFO @ 1245: reporter [MISCMP] 1 Miscompare(s) for object tr@825 vs. exp@617
# UVM_WARNING @ 1245: uvm_test_top.env_h.comp [Comparator Mismatch] 
# mult: input A = 1106214409, input B = 4183870257, output OUT =  4628257563679933113
# mult: input A = 01000001111011110111111000001001, input B = 11111001011000001100101100110001, output OUT = 0100000000111010110111111011101110001100001010000100001010111001
# refmod: input A =  1106214409, input B =  -111097039, output OUT =   -122897145339034951
# refmod: input A = 01000001111011110111111000001001, input B = 11111001011000001100101100110001, output OUT = 1111111001001011011000011011001010001100001010000100001010111001
# UVM_INFO @ 1275: reporter [MISCMP] Miscompare for exp.data: lhs = 'hfe4b61b28c2842b9 : rhs = 'h403adfbb8c2842b9
# UVM_INFO @ 1275: reporter [MISCMP] 1 Miscompare(s) for object tr@825 vs. exp@617
